{
  "project_info": {
    "project_number": "594627014411",
    "firebase_url": "https://medibuddy-210ae.firebaseio.com",
    "project_id": "medibuddy-210ae",
    "storage_bucket": "medibuddy-210ae.appspot.com"
  },
  "client": [
    {
      "client_info": {
        "mobilesdk_app_id": "1:594627014411:android:ff7be9c2be347ad9247c0e",
        "android_client_info": {
          "package_name": "com.example.medibuddy"
        }
      },
      "oauth_client": [
        {
          "client_id": "594627014411-dm05tdirhgdnpn8t5e8r5i59upvju5i0.apps.googleusercontent.com",
          "client_type": 1,
          "android_info": {
            "package_name": "com.example.medibuddy",
            "certificate_hash": "eb66f1a202425ee565b6f47101be688e74646f28"
          }
        },
        {
          "client_id": "594627014411-cr55oboh83pbbse5m9726uospi9j97kh.apps.googleusercontent.com",
          "client_type": 1,
          "android_info": {
            "package_name": "com.example.medibuddy",
            "certificate_hash": "b96937abc3c6fe27b0efdea09d2d69e2ca68f237"
          }
        },
        {
          "client_id": "594627014411-3vqppnvassog4qbk9creo748gkbski7m.apps.googleusercontent.com",
          "client_type": 3
        }
      ],
      "api_key": [
        {
          "current_key": "AIzaSyC_Sk902N5fz2PdyCEUd3g-oigiDUfGd6g"
        }
      ],
      "services": {
        "appinvite_service": {
          "other_platform_oauth_client": [
            {
              "client_id": "594627014411-3vqppnvassog4qbk9creo748gkbski7m.apps.googleusercontent.com",
              "client_type": 3
            }
          ]
        }
      }
    }
  ],
  "configuration_version": "1"
}